%YAML 1.1
%TAG !u! tag:unity3d.com,2011:
--- !u!114 &11400000
MonoBehaviour:
  m_ObjectHideFlags: 0
  m_CorrespondingSourceObject: {fileID: 0}
  m_PrefabInstance: {fileID: 0}
  m_PrefabAsset: {fileID: 0}
  m_GameObject: {fileID: 0}
  m_Enabled: 1
  m_EditorHideFlags: 0
  m_Script: {fileID: -1893448595, guid: a040fb66244a7f54289914d98ea4ef7d, type: 3}
  m_Name: PlayerController
  m_EditorClassIdentifier: 
  _data:
    _json: '{"graph":{"variables":{"Kind":"Flow","collection":{"$content":[],"$version":"A"},"$version":"A"},"controlInputDefinitions":[],"controlOutputDefinitions":[],"valueInputDefinitions":[],"valueOutputDefinitions":[],"title":null,"summary":null,"pan":{"x":2432.167,"y":-154.927},"zoom":1.0,"elements":[{"coroutine":false,"defaultValues":{},"position":{"x":-204.0,"y":-144.0},"guid":"691ee24e-ba4c-47d4-b107-eb76aaee8b21","$version":"A","$type":"Bolt.Start"},{"type":"UnityEngine.RaycastHit2D","instance":true,"static":true,"defaultValues":{},"position":{"x":914.0,"y":798.0},"guid":"14289371-6795-403a-ab66-3ac1bda8fed3","$version":"A","$type":"Bolt.Expose","$id":"11"},{"defaultValues":{"b":{"$content":1.0,"$type":"System.Single"}},"position":{"x":47.0,"y":202.0},"guid":"cced62d6-9014-4f33-a219-e4ca9b8538a7","$version":"A","$type":"Bolt.ScalarMultiply","$id":"13"},{"chainable":false,"member":{"name":"CircleCast","parameterTypes":["UnityEngine.Vector2","System.Single","UnityEngine.Vector2","System.Single","System.Int32"],"targetType":"UnityEngine.Physics2D","targetTypeName":"UnityEngine.Physics2D","$version":"A"},"defaultValues":{"%origin":{"x":0.0,"y":0.0,"$type":"UnityEngine.Vector2"},"%radius":{"$content":0.3,"$type":"System.Single"},"%direction":{"x":0.0,"y":-1.0,"$type":"UnityEngine.Vector2"},"%distance":{"$content":0.6,"$type":"System.Single"},"%layerMask":{"$content":0,"$type":"System.Int32"}},"position":{"x":705.0,"y":818.0},"guid":"75cb6e3a-e703-410a-be8f-d15fd6ebe3cc","$version":"A","$type":"Bolt.InvokeMember","$id":"15"},{"member":{"name":"y","parameterTypes":null,"targetType":"UnityEngine.Vector2","targetTypeName":"UnityEngine.Vector2","$version":"A"},"defaultValues":{"target":{"x":0.0,"y":0.0,"$type":"UnityEngine.Vector2"}},"position":{"x":638.0,"y":73.0},"guid":"325b1ac6-ca0b-408e-890e-9cab909eeb9f","$version":"A","$type":"Bolt.GetMember","$id":"18"},{"member":{"name":"velocity","parameterTypes":null,"targetType":"UnityEngine.Rigidbody2D","targetTypeName":"UnityEngine.Rigidbody2D","$version":"A"},"defaultValues":{"target":null},"position":{"x":478.0,"y":71.0},"guid":"2ce72ede-cf68-41a8-bc20-aed2c78af32f","$version":"A","$type":"Bolt.GetMember","$id":"21"},{"defaultValues":{},"position":{"x":951.0,"y":1103.0},"guid":"ac5a511b-fab0-4d28-9d15-c5bb15246d18","$version":"A","$type":"Bolt.Null","$id":"24"},{"chainable":false,"member":{"name":".ctor","parameterTypes":["System.Single","System.Single"],"targetType":"UnityEngine.Vector2","targetTypeName":"UnityEngine.Vector2","$version":"A"},"defaultValues":{"%x":{"$content":0.0,"$type":"System.Single"},"%y":{"$content":0.0,"$type":"System.Single"}},"position":{"x":1450.0,"y":921.0},"guid":"2c4866cf-9db2-4d2c-a903-b1e95de65684","$version":"A","$type":"Bolt.InvokeMember","$id":"26"},{"defaultValues":{},"position":{"x":1272.0,"y":803.0},"guid":"497b9242-dc14-46c2-8d9a-6a98fd0e6a1d","$version":"A","$type":"Bolt.Branch","$id":"29"},{"coroutine":false,"defaultValues":{"buttonName":{"$content":"Jump","$type":"System.String"},"action":{"$content":"Down","$type":"Ludiq.PressState"}},"position":{"x":-226.0,"y":712.0},"guid":"790373a3-b46f-4494-b4ba-88d11d38cfdc","$version":"A","$type":"Bolt.OnButtonInput","$id":"31"},{"chainable":false,"member":{"name":".ctor","parameterTypes":["System.Single","System.Single"],"targetType":"UnityEngine.Vector2","targetTypeName":"UnityEngine.Vector2","$version":"A"},"defaultValues":{"%x":{"$content":0.0,"$type":"System.Single"},"%y":{"$content":0.0,"$type":"System.Single"}},"position":{"x":-33.0,"y":842.0},"guid":"fa946f24-cbe1-4642-a750-cb8ec404f3e4","$version":"A","$type":"Bolt.InvokeMember","$id":"33"},{"argumentCount":0,"coroutine":false,"defaultValues":{"target":null,"name":{"$content":"Death","$type":"System.String"}},"position":{"x":2299.0,"y":-392.0},"guid":"787b15b9-9120-4acc-b581-7fd43ec38e85","$version":"A","$type":"Bolt.CustomEvent","$id":"36"},{"chainable":false,"member":{"name":"GetActiveScene","parameterTypes":[],"targetType":"UnityEngine.SceneManagement.SceneManager","targetTypeName":"UnityEngine.SceneManagement.SceneManager","$version":"A"},"defaultValues":{},"position":{"x":2158.0,"y":-204.0},"guid":"06cfe387-efb9-4618-ac6d-f584bc19b1b8","$version":"A","$type":"Bolt.InvokeMember","$id":"38"},{"chainable":false,"member":{"name":"LoadScene","parameterTypes":["System.String"],"targetType":"UnityEngine.SceneManagement.SceneManager","targetTypeName":"UnityEngine.SceneManagement.SceneManager","$version":"A"},"defaultValues":{"%sceneName":{"$content":"","$type":"System.String"}},"position":{"x":2570.0,"y":-208.0},"guid":"ee65bdf3-7205-405a-bee2-a1af93a59200","$version":"A","$type":"Bolt.InvokeMember","$id":"41"},{"member":{"name":"name","parameterTypes":null,"targetType":"UnityEngine.SceneManagement.Scene","targetTypeName":"UnityEngine.SceneManagement.Scene","$version":"A"},"defaultValues":{},"position":{"x":2387.0,"y":-191.0},"guid":"40b2892c-993d-4ef7-90f3-20e68b6a2c7e","$version":"A","$type":"Bolt.GetMember","$id":"44"},{"numeric":false,"defaultValues":{},"position":{"x":1101.0,"y":1062.0},"guid":"ed2ac4da-9b86-4a59-9547-2379baeac30f","$version":"A","$type":"Bolt.NotEqual","$id":"47"},{"kind":"Graph","defaultValues":{"name":{"$content":"Movement","$type":"System.String"}},"position":{"x":186.0,"y":63.0},"guid":"98704701-dad2-4b7f-970e-3a19a53ff80f","$version":"A","$type":"Bolt.SetVariable","$id":"49"},{"coroutine":false,"defaultValues":{"buttonName":{"$content":"Jump","$type":"System.String"},"action":{"$content":"Down","$type":"Ludiq.PressState"}},"position":{"x":1079.0,"y":667.0},"guid":"8dc276fc-b9d6-44aa-a62e-18e85e3b936c","$version":"A","$type":"Bolt.OnButtonInput","$id":"51"},{"chainable":false,"member":{"name":"velocity","parameterTypes":null,"targetType":"UnityEngine.Rigidbody2D","targetTypeName":"UnityEngine.Rigidbody2D","$version":"A"},"defaultValues":{"target":null,"input":{"x":0.0,"y":0.0,"$type":"UnityEngine.Vector2"}},"position":{"x":885.0,"y":-179.0},"guid":"886b85c3-764d-4216-a9ed-90890d1fe530","$version":"A","$type":"Bolt.SetMember","$id":"53"},{"type":"System.Single","value":{"$content":-1.0,"$type":"System.Single"},"defaultValues":{},"position":{"x":1339.0,"y":418.0},"guid":"cf12452f-d64c-4682-a34d-9f057d9f726c","$version":"A","$type":"Bolt.Literal","$id":"56"},{"chainable":false,"member":{"name":".ctor","parameterTypes":["System.Single","System.Single"],"targetType":"UnityEngine.Vector2","targetTypeName":"UnityEngine.Vector2","$version":"A"},"defaultValues":{"%x":{"$content":0.0,"$type":"System.Single"},"%y":{"$content":0.0,"$type":"System.Single"}},"position":{"x":747.0,"y":-69.0},"guid":"6545a46d-d94d-4d8f-ac34-5c9fc4ec5238","$version":"A","$type":"Bolt.InvokeMember","$id":"58"},{"defaultValues":{},"position":{"x":1603.0,"y":181.0},"guid":"5eee503e-d5e1-4edc-af44-0d14ca226bb9","$version":"A","$type":"Bolt.Branch","$id":"61"},{"type":"System.Single","value":{"$content":0.0,"$type":"System.Single"},"defaultValues":{},"position":{"x":1335.0,"y":540.0},"guid":"b1e97a8c-0a32-475d-8dbf-c91cad25ecaa","$version":"A","$type":"Bolt.Literal","$id":"63"},{"specifyFallback":false,"kind":"Graph","defaultValues":{"name":{"$content":"Movement","$type":"System.String"}},"position":{"x":1129.0,"y":203.0},"guid":"50fa1f54-2852-4226-96dd-3f1df2e659e1","$version":"A","$type":"Bolt.GetVariable","$id":"65"},{"numeric":true,"defaultValues":{"b":{"$content":0.0,"$type":"System.Single"}},"position":{"x":1320.0,"y":204.0},"guid":"9eb63024-557e-4c8a-81f3-5b617b990e65","$version":"A","$type":"Bolt.Comparison","$id":"67"},{"chainable":false,"member":{"name":".ctor","parameterTypes":["System.Single","System.Single","System.Single"],"targetType":"UnityEngine.Vector3","targetTypeName":"UnityEngine.Vector3","$version":"A"},"defaultValues":{"%x":{"$content":0.0,"$type":"System.Single"},"%y":{"$content":1.0,"$type":"System.Single"},"%z":{"$content":1.0,"$type":"System.Single"}},"position":{"x":1655.0,"y":382.0},"guid":"b1ba47e0-3a21-4bb4-aa93-e8486e457bd2","$version":"A","$type":"Bolt.InvokeMember","$id":"69"},{"specifyFallback":false,"kind":"Object","defaultValues":{"name":{"$content":"Speed","$type":"System.String"},"object":null},"position":{"x":-152.0,"y":274.0},"guid":"c7f326a2-7e5d-4de8-9d25-d50528794ed4","$version":"A","$type":"Bolt.GetVariable","$id":"72"},{"coroutine":false,"defaultValues":{},"position":{"x":42.0,"y":-128.0},"guid":"1525e07a-a51b-4a84-adab-d1071870fee5","$version":"A","$type":"Bolt.Update","$id":"74"},{"defaultValues":{},"position":{"x":1504.0,"y":336.0},"guid":"c269779a-a75e-4cb7-a3ba-be7ad5747abb","$version":"A","$type":"Bolt.SelectUnit","$id":"76"},{"specifyFallback":false,"kind":"Object","defaultValues":{"name":{"$content":"Jump
      ","$type":"System.String"},"object":null},"position":{"x":1261.0,"y":961.0},"guid":"5f3f9201-99da-4ca8-8ea5-dd7626a3e2c9","$version":"A","$type":"Bolt.GetVariable","$id":"78"},{"specifyFallback":false,"kind":"Object","defaultValues":{"name":{"$content":"Jump
      ","$type":"System.String"},"object":null},"position":{"x":-225.0,"y":869.0},"guid":"c930bf06-df95-449f-b5bc-af612af7ca12","$version":"A","$type":"Bolt.GetVariable","$id":"80"},{"chainable":false,"member":{"name":"localScale","parameterTypes":null,"targetType":"UnityEngine.Transform","targetTypeName":"UnityEngine.Transform","$version":"A"},"defaultValues":{"target":null,"input":{"x":0.0,"y":0.0,"z":0.0,"$type":"UnityEngine.Vector3"}},"position":{"x":1815.0,"y":256.0},"guid":"2086fd14-f774-408d-821e-9cfed07a3774","$version":"A","$type":"Bolt.SetMember","$id":"82"},{"specifyFallback":false,"kind":"Graph","defaultValues":{"name":{"$content":"Movement","$type":"System.String"}},"position":{"x":512.0,"y":-56.0},"guid":"7ae540b7-5f66-4248-8f29-7834d2a911f1","$version":"A","$type":"Bolt.GetVariable","$id":"85"},{"chainable":false,"member":{"name":"AddForce","parameterTypes":["UnityEngine.Vector2","UnityEngine.ForceMode2D"],"targetType":"UnityEngine.Rigidbody2D","targetTypeName":"UnityEngine.Rigidbody2D","$version":"A"},"defaultValues":{"target":null,"%force":{"x":0.0,"y":0.0,"$type":"UnityEngine.Vector2"},"%mode":{"$content":"Impulse","$type":"UnityEngine.ForceMode2D"}},"position":{"x":103.0,"y":706.0},"guid":"663d79e7-ef75-47d3-bc85-41f10900e079","$version":"A","$type":"Bolt.InvokeMember","$id":"87"},{"chainable":false,"member":{"name":"AddForce","parameterTypes":["UnityEngine.Vector2","UnityEngine.ForceMode2D"],"targetType":"UnityEngine.Rigidbody2D","targetTypeName":"UnityEngine.Rigidbody2D","$version":"A"},"defaultValues":{"target":null,"%force":{"x":0.0,"y":0.0,"$type":"UnityEngine.Vector2"},"%mode":{"$content":"Impulse","$type":"UnityEngine.ForceMode2D"}},"position":{"x":1598.0,"y":804.0},"guid":"2a1bd115-58cd-490d-a812-fbfd7af18d03","$version":"A","$type":"Bolt.InvokeMember","$id":"90"},{"type":"UnityEngine.LayerMask","value":{"value":8,"$type":"UnityEngine.LayerMask"},"defaultValues":{},"position":{"x":487.0,"y":960.0},"guid":"841e8663-6c54-43c0-ae31-5d7fff51424f","$version":"A","$type":"Bolt.Literal","$id":"93"},{"chainable":false,"member":{"name":"GetAxis","parameterTypes":["System.String"],"targetType":"UnityEngine.Input","targetTypeName":"UnityEngine.Input","$version":"A"},"defaultValues":{"%axisName":{"$content":"Horizontal","$type":"System.String"}},"position":{"x":-183.0,"y":89.0},"guid":"3b0313af-f56e-4677-ada9-d88394b6fc7f","$version":"A","$type":"Bolt.InvokeMember","$id":"95"},{"member":{"name":"position","parameterTypes":null,"targetType":"UnityEngine.Transform","targetTypeName":"UnityEngine.Transform","$version":"A"},"defaultValues":{"target":null},"position":{"x":487.0,"y":830.0},"guid":"ef28ca25-855e-413d-b382-5e193dc04ac6","$version":"A","$type":"Bolt.GetMember","$id":"98"},{"sourceUnit":{"$ref":"74"},"sourceKey":"trigger","destinationUnit":{"$ref":"49"},"destinationKey":"assign","guid":"cf0e21e6-8341-418d-922a-d5a25fb50ac5","$type":"Bolt.ControlConnection"},{"sourceUnit":{"$ref":"61"},"sourceKey":"ifFalse","destinationUnit":{"$ref":"82"},"destinationKey":"assign","guid":"c74ddec8-ff4a-4a64-b3f8-b3c2f86388be","$type":"Bolt.ControlConnection"},{"sourceUnit":{"$ref":"53"},"sourceKey":"assigned","destinationUnit":{"$ref":"61"},"destinationKey":"enter","guid":"31cb6bc8-8e4a-462d-949b-dc3718b08cee","$type":"Bolt.ControlConnection"},{"sourceUnit":{"$ref":"51"},"sourceKey":"trigger","destinationUnit":{"$ref":"29"},"destinationKey":"enter","guid":"123e77e0-4034-4e2a-813c-4049b0fe1b87","$type":"Bolt.ControlConnection"},{"sourceUnit":{"$ref":"29"},"sourceKey":"ifTrue","destinationUnit":{"$ref":"90"},"destinationKey":"enter","guid":"5b83a440-d8d1-43c0-b0b6-e8cb160a0a73","$type":"Bolt.ControlConnection"},{"sourceUnit":{"$ref":"31"},"sourceKey":"trigger","destinationUnit":{"$ref":"87"},"destinationKey":"enter","guid":"66717607-afae-48de-8677-2b86dbf3ac9f","$type":"Bolt.ControlConnection"},{"sourceUnit":{"$ref":"36"},"sourceKey":"trigger","destinationUnit":{"$ref":"41"},"destinationKey":"enter","guid":"b75179f3-cacb-4572-8df0-5010b2d995df","$type":"Bolt.ControlConnection"},{"sourceUnit":{"$ref":"49"},"sourceKey":"assigned","destinationUnit":{"$ref":"53"},"destinationKey":"assign","guid":"551dc391-93ce-42a8-b1eb-ee515ec4d5ac","$type":"Bolt.ControlConnection"},{"sourceUnit":{"$ref":"78"},"sourceKey":"value","destinationUnit":{"$ref":"26"},"destinationKey":"%y","guid":"050df94b-6f06-416c-a231-1f00766ed32c","$type":"Bolt.ValueConnection"},{"sourceUnit":{"$ref":"72"},"sourceKey":"value","destinationUnit":{"$ref":"13"},"destinationKey":"b","guid":"4b6a95ff-04c3-4a09-b163-b9a049ec0813","$type":"Bolt.ValueConnection"},{"sourceUnit":{"$ref":"11"},"sourceKey":"collider","destinationUnit":{"$ref":"47"},"destinationKey":"a","guid":"ffd0eacd-c4e3-4d1c-bfcf-ee9b72af01e2","$type":"Bolt.ValueConnection"},{"sourceUnit":{"$ref":"13"},"sourceKey":"product","destinationUnit":{"$ref":"49"},"destinationKey":"input","guid":"8400ac40-670c-4070-b298-fe036645abd2","$type":"Bolt.ValueConnection"},{"sourceUnit":{"$ref":"26"},"sourceKey":"result","destinationUnit":{"$ref":"90"},"destinationKey":"%force","guid":"4d7a2c6c-da9c-4ba9-9845-7965eb881540","$type":"Bolt.ValueConnection"},{"sourceUnit":{"$ref":"21"},"sourceKey":"value","destinationUnit":{"$ref":"18"},"destinationKey":"target","guid":"a3046145-b3d4-4792-853e-c63165270812","$type":"Bolt.ValueConnection"},{"sourceUnit":{"$ref":"15"},"sourceKey":"result","destinationUnit":{"$ref":"11"},"destinationKey":"target","guid":"a17abcf4-78ae-4a13-8085-ac2af91fdf84","$type":"Bolt.ValueConnection"},{"sourceUnit":{"$ref":"93"},"sourceKey":"output","destinationUnit":{"$ref":"15"},"destinationKey":"%layerMask","guid":"695142f2-7873-4c75-896c-0383120aca34","$type":"Bolt.ValueConnection"},{"sourceUnit":{"$ref":"33"},"sourceKey":"result","destinationUnit":{"$ref":"87"},"destinationKey":"%force","guid":"419b1f21-361c-4368-8ff2-4eb44f263782","$type":"Bolt.ValueConnection"},{"sourceUnit":{"$ref":"38"},"sourceKey":"result","destinationUnit":{"$ref":"44"},"destinationKey":"target","guid":"8f2bb524-3284-4098-ab25-2c1c31f454be","$type":"Bolt.ValueConnection"},{"sourceUnit":{"$ref":"44"},"sourceKey":"value","destinationUnit":{"$ref":"41"},"destinationKey":"%sceneName","guid":"3a94eecb-f745-472c-ad6b-092897568d03","$type":"Bolt.ValueConnection"},{"sourceUnit":{"$ref":"47"},"sourceKey":"notEqual","destinationUnit":{"$ref":"29"},"destinationKey":"condition","guid":"3ac282cc-6985-4619-ada5-51bc3c1218a1","$type":"Bolt.ValueConnection"},{"sourceUnit":{"$ref":"98"},"sourceKey":"value","destinationUnit":{"$ref":"15"},"destinationKey":"%origin","guid":"7c01c44e-fc1d-49ff-9f4b-95d2c857eb75","$type":"Bolt.ValueConnection"},{"sourceUnit":{"$ref":"24"},"sourceKey":"null","destinationUnit":{"$ref":"47"},"destinationKey":"b","guid":"2fc58603-a4f5-412a-a64c-9171263450ec","$type":"Bolt.ValueConnection"},{"sourceUnit":{"$ref":"58"},"sourceKey":"result","destinationUnit":{"$ref":"53"},"destinationKey":"input","guid":"b07bb370-f52c-45f5-8994-5efb16df2f17","$type":"Bolt.ValueConnection"},{"sourceUnit":{"$ref":"67"},"sourceKey":"aLessThanB","destinationUnit":{"$ref":"76"},"destinationKey":"condition","guid":"bf710c78-c80b-46ea-9b1c-c40139321f59","$type":"Bolt.ValueConnection"},{"sourceUnit":{"$ref":"65"},"sourceKey":"value","destinationUnit":{"$ref":"67"},"destinationKey":"a","guid":"42e82b77-d03f-4682-954c-968000e23ba3","$type":"Bolt.ValueConnection"},{"sourceUnit":{"$ref":"80"},"sourceKey":"value","destinationUnit":{"$ref":"33"},"destinationKey":"%y","guid":"836074d9-527a-42ba-b258-6b54bea311c2","$type":"Bolt.ValueConnection"},{"sourceUnit":{"$ref":"95"},"sourceKey":"result","destinationUnit":{"$ref":"13"},"destinationKey":"a","guid":"d5570332-8adc-4567-93b1-bf594ab92059","$type":"Bolt.ValueConnection"},{"sourceUnit":{"$ref":"18"},"sourceKey":"value","destinationUnit":{"$ref":"58"},"destinationKey":"%y","guid":"4319c9c4-d96f-49a5-a6c3-5b825dbea6af","$type":"Bolt.ValueConnection"},{"sourceUnit":{"$ref":"63"},"sourceKey":"output","destinationUnit":{"$ref":"76"},"destinationKey":"ifFalse","guid":"3c058466-1e49-4a01-bbfd-f21d1d9d6988","$type":"Bolt.ValueConnection"},{"sourceUnit":{"$ref":"76"},"sourceKey":"selection","destinationUnit":{"$ref":"69"},"destinationKey":"%x","guid":"7b4c9ed2-cc19-439d-9e65-36de64fe2b82","$type":"Bolt.ValueConnection"},{"sourceUnit":{"$ref":"56"},"sourceKey":"output","destinationUnit":{"$ref":"76"},"destinationKey":"ifTrue","guid":"5c3df091-bf38-4241-9795-e5550202509c","$type":"Bolt.ValueConnection"},{"sourceUnit":{"$ref":"69"},"sourceKey":"result","destinationUnit":{"$ref":"82"},"destinationKey":"input","guid":"5d66eb6d-25ee-4ad4-9851-0cd4a47b0453","$type":"Bolt.ValueConnection"},{"sourceUnit":{"$ref":"85"},"sourceKey":"value","destinationUnit":{"$ref":"58"},"destinationKey":"%x","guid":"8f61d568-9807-4991-9d93-b15d5b344520","$type":"Bolt.ValueConnection"},{"sourceUnit":{"$ref":"67"},"sourceKey":"aEqualToB","destinationUnit":{"$ref":"61"},"destinationKey":"condition","guid":"0d8364f1-450c-4cd3-be58-1198cb2338a4","$type":"Bolt.ValueConnection"},{"position":{"xMin":1106.0,"yMin":103.0,"xMax":2003.0,"yMax":656.0},"label":"Flip","comment":null,"color":{"r":0.0,"g":0.0,"b":0.0,"a":1.0},"guid":"49f29abd-a8ec-41a3-ae9f-2ae1ee886036","$version":"A","$type":"Ludiq.GraphGroup"},{"position":{"xMin":-219.0,"yMin":8.0,"xMax":351.0,"yMax":409.0},"label":"Calculate
      Movement","comment":null,"color":{"r":0.0,"g":0.0,"b":0.0,"a":1.0},"guid":"1b226b2d-1a05-4b25-a6b3-a75a77fa3f0c","$version":"A","$type":"Ludiq.GraphGroup"},{"position":{"xMin":-262.0,"yMin":660.0,"xMax":364.0,"yMax":1016.0},"label":"Jump","comment":null,"color":{"r":0.0,"g":0.0,"b":0.0,"a":1.0},"guid":"c152e4e7-be5e-461d-9a14-d7599f8ea211","$version":"A","$type":"Ludiq.GraphGroup"},{"position":{"xMin":440.0,"yMin":741.0,"xMax":1787.0,"yMax":1196.0},"label":"Jump","comment":null,"color":{"r":0.0,"g":0.0,"b":0.0,"a":1.0},"guid":"14657f19-d0be-4e94-8345-3cfaafccdfaf","$version":"A","$type":"Ludiq.GraphGroup"},{"position":{"xMin":453.0,"yMin":-223.0,"xMax":1060.0,"yMax":177.0},"label":"Set
      Velocity","comment":null,"color":{"r":0.0,"g":0.0,"b":0.0,"a":1.0},"guid":"e79c5886-9c2f-47d2-849c-64bf88e7121a","$version":"A","$type":"Ludiq.GraphGroup"},{"position":{"xMin":2131.0,"yMin":-267.0,"xMax":2734.0,"yMax":-75.0},"label":"Death","comment":null,"color":{"r":0.0,"g":0.0,"b":0.0,"a":1.0},"guid":"93ecfb4c-09bb-4d05-a0b0-a9eb65414553","$version":"A","$type":"Ludiq.GraphGroup"}],"$version":"A"}}'
    _objectReferences: []
